Log file opened on Thu Dec 20 14:17:17 2012
Host: amd2  pid: 33102  nodeid: 0  nnodes:  1
Gromacs version:    VERSION 4.6-beta2-dev-20121220-4d3a2d4
GIT SHA1 hash:      4d3a2d48d7bdde9d1297230221ea2d088af0e8cc
Branched from:      66ba29b16bd066b88f06813f62f43a5233723780 (1 newer local commits)
Precision:          double
MPI library:        none
OpenMP support:     disabled
GPU support:        disabled
invsqrt routine:    (1.0/sqrt(x))
CPU acceleration:   None
FFT library:        fftpack (built-in)
Large file support: enabled
RDTSCP usage:       enabled
Built on:           Thu Dec 20 14:12:15 CET 2012
Built by:           mark@amd2 [CMAKE]
Build OS/arch:      Linux 3.2.0-29-generic x86_64
Build CPU vendor:   AuthenticAMD
Build CPU brand:    AMD Opteron(tm) Processor 6176
Build CPU family:   16   Model: 9   Stepping: 1
Build CPU features: apic clfsh cmov cx8 cx16 htt lahf_lm misalignsse mmx msr nonstop_tsc pdpe1gb popcnt pse rdtscp sse2 sse3 sse4a
C compiler:         /usr/bin/gcc-4.7 GNU gcc-4.7 (Ubuntu/Linaro 4.7.2-4precise1) 4.7.2
C compiler flags:    -Wextra -Wno-missing-field-initializers -Wno-sign-compare -Wall -Wno-unused -Wunused-value -Wno-unknown-pragmas   -O0 -g


                         :-)  G  R  O  M  A  C  S  (-:

                   Groningen Machine for Chemical Simulation

                :-)  VERSION 4.6-beta2-dev-20121220-4d3a2d4  (-:

        Written by Emile Apol, Rossen Apostolov, Herman J.C. Berendsen,
      Aldert van Buuren, Pär Bjelkmar, Rudi van Drunen, Anton Feenstra, 
        Gerrit Groenhof, Peter Kasson, Per Larsson, Pieter Meulenhoff, 
           Teemu Murtola, Szilard Pall, Sander Pronk, Roland Schulz, 
                Michael Shirts, Alfons Sijbers, Peter Tieleman,

               Berk Hess, David van der Spoel, and Erik Lindahl.

       Copyright (c) 1991-2000, University of Groningen, The Netherlands.
            Copyright (c) 2001-2010, The GROMACS development team at
        Uppsala University & The Royal Institute of Technology, Sweden.
            check out http://www.gromacs.org for more information.

         This program is free software; you can redistribute it and/or
       modify it under the terms of the GNU Lesser General Public License
        as published by the Free Software Foundation; either version 2.1
             of the License, or (at your option) any later version.

                      :-)  mdrun_d (double precision)  (-:


++++ PLEASE READ AND CITE THE FOLLOWING REFERENCE ++++
B. Hess and C. Kutzner and D. van der Spoel and E. Lindahl
GROMACS 4: Algorithms for highly efficient, load-balanced, and scalable
molecular simulation
J. Chem. Theory Comput. 4 (2008) pp. 435-447
-------- -------- --- Thank You --- -------- --------


++++ PLEASE READ AND CITE THE FOLLOWING REFERENCE ++++
D. van der Spoel, E. Lindahl, B. Hess, G. Groenhof, A. E. Mark and H. J. C.
Berendsen
GROMACS: Fast, Flexible and Free
J. Comp. Chem. 26 (2005) pp. 1701-1719
-------- -------- --- Thank You --- -------- --------


++++ PLEASE READ AND CITE THE FOLLOWING REFERENCE ++++
E. Lindahl and B. Hess and D. van der Spoel
GROMACS 3.0: A package for molecular simulation and trajectory analysis
J. Mol. Mod. 7 (2001) pp. 306-317
-------- -------- --- Thank You --- -------- --------


++++ PLEASE READ AND CITE THE FOLLOWING REFERENCE ++++
H. J. C. Berendsen, D. van der Spoel and R. van Drunen
GROMACS: A message-passing parallel molecular dynamics implementation
Comp. Phys. Comm. 91 (1995) pp. 43-56
-------- -------- --- Thank You --- -------- --------

Input Parameters:
   integrator           = md
   nsteps               = 2
   init-step            = 0
   cutoff-scheme        = Group
   ns_type              = Grid
   nstlist              = 1
   ndelta               = 2
   nstcomm              = 100
   comm-mode            = Linear
   nstlog               = 1000
   nstxout              = 1
   nstvout              = 0
   nstfout              = 1
   nstcalcenergy        = 2
   nstenergy            = 1000
   nstxtcout            = 0
   init-t               = 0
   delta-t              = 0.002
   xtcprec              = 1000
   fourierspacing       = 0.12
   nkx                  = 0
   nky                  = 0
   nkz                  = 0
   pme-order            = 4
   ewald-rtol           = 1e-05
   ewald-geometry       = 0
   epsilon-surface      = 0
   optimize-fft         = FALSE
   ePBC                 = xyz
   bPeriodicMols        = FALSE
   bContinuation        = FALSE
   bShakeSOR            = FALSE
   etc                  = No
   bPrintNHChains       = FALSE
   nsttcouple           = -1
   epc                  = No
   epctype              = Isotropic
   nstpcouple           = -1
   tau-p                = 1
   ref-p (3x3):
      ref-p[    0]={ 0.00000e+00,  0.00000e+00,  0.00000e+00}
      ref-p[    1]={ 0.00000e+00,  0.00000e+00,  0.00000e+00}
      ref-p[    2]={ 0.00000e+00,  0.00000e+00,  0.00000e+00}
   compress (3x3):
      compress[    0]={ 0.00000e+00,  0.00000e+00,  0.00000e+00}
      compress[    1]={ 0.00000e+00,  0.00000e+00,  0.00000e+00}
      compress[    2]={ 0.00000e+00,  0.00000e+00,  0.00000e+00}
   refcoord-scaling     = No
   posres-com (3):
      posres-com[0]= 0.00000e+00
      posres-com[1]= 0.00000e+00
      posres-com[2]= 0.00000e+00
   posres-comB (3):
      posres-comB[0]= 0.00000e+00
      posres-comB[1]= 0.00000e+00
      posres-comB[2]= 0.00000e+00
   verlet-buffer-drift  = 0.005
   rlist                = 0.01
   rlistlong            = 0.99
   nstcalclr            = 1
   rtpi                 = 0.05
   coulombtype          = Cut-off
   coulomb-modifier     = None
   rcoulomb-switch      = 0.7
   rcoulomb             = 0.99
   vdwtype              = Cut-off
   vdw-modifier         = None
   rvdw-switch          = 0.7
   rvdw                 = 0.99
   epsilon-r            = 1
   epsilon-rf           = 49.5
   tabext               = 1
   implicit-solvent     = No
   gb-algorithm         = Still
   gb-epsilon-solvent   = 80
   nstgbradii           = 1
   rgbradii             = 1
   gb-saltconc          = 0
   gb-obc-alpha         = 1
   gb-obc-beta          = 0.8
   gb-obc-gamma         = 4.85
   gb-dielectric-offset = 0.009
   sa-algorithm         = Ace-approximation
   sa-surface-tension   = 2.05016
   DispCorr             = No
   bSimTemp             = FALSE
   free-energy          = no
   nwall                = 0
   wall-type            = 9-3
   wall-atomtype[0]     = -1
   wall-atomtype[1]     = -1
   wall-density[0]      = 0
   wall-density[1]      = 0
   wall-ewald-zfac      = 3
   pull                 = no
   rotation             = FALSE
   disre                = No
   disre-weighting      = Conservative
   disre-mixed          = FALSE
   dr-fc                = 1000
   dr-tau               = 0
   nstdisreout          = 100
   orires-fc            = 0
   orires-tau           = 0
   nstorireout          = 100
   dihre-fc             = 0
   em-stepsize          = 0.01
   em-tol               = 10
   niter                = 20
   fc-stepsize          = 0
   nstcgsteep           = 1000
   nbfgscorr            = 10
   ConstAlg             = Lincs
   shake-tol            = 0.0001
   lincs-order          = 4
   lincs-warnangle      = 30
   lincs-iter           = 1
   bd-fric              = 0
   ld-seed              = 1993
   cos-accel            = 0
   deform (3x3):
      deform[    0]={ 0.00000e+00,  0.00000e+00,  0.00000e+00}
      deform[    1]={ 0.00000e+00,  0.00000e+00,  0.00000e+00}
      deform[    2]={ 0.00000e+00,  0.00000e+00,  0.00000e+00}
   adress               = FALSE
   userint1             = 0
   userint2             = 0
   userint3             = 0
   userint4             = 0
   userreal1            = 0
   userreal2            = 0
   userreal3            = 0
   userreal4            = 0
grpopts:
   nrdf:           0
   ref-t:           0
   tau-t:           0
anneal:          No
ann-npoints:           0
   acc:	           0           0           0
   nfreeze:           Y           Y           Y
   energygrp-flags[  0]: 1 0
   energygrp-flags[  1]: 0 0
   efield-x:
      n = 0
   efield-xt:
      n = 0
   efield-y:
      n = 0
   efield-yt:
      n = 0
   efield-z:
      n = 0
   efield-zt:
      n = 0
   bQMMM                = FALSE
   QMconstraints        = 0
   QMMMscheme           = 0
   scalefactor          = 1
qm-opts:
   ngQM                 = 0

Detecting CPU-specific acceleration.
Present hardware specification:
Vendor: AuthenticAMD
Brand:  AMD Opteron(tm) Processor 6176
Family: 16  Model:  9  Stepping:  1
Features: apic clfsh cmov cx8 cx16 htt lahf_lm misalignsse mmx msr nonstop_tsc pdpe1gb popcnt pse rdtscp sse2 sse3 sse4a
Acceleration most likely to fit this hardware: SSE2
Acceleration selected at GROMACS compile time: None


Binary not matching hardware - you might be losing performance.
Acceleration most likely to fit this hardware: SSE2
Acceleration selected at GROMACS compile time: None

Table routines are used for coulomb: FALSE
Table routines are used for vdw:     FALSE
Cut-off's:   NS: 0.01   Coulomb: 0.99   LJ: 0.99
System total charge: 0.000
Generated table with 3980 data points for 1-4 COUL.
Tabscale = 2000 points/nm
Generated table with 3980 data points for 1-4 LJ6.
Tabscale = 2000 points/nm
Generated table with 3980 data points for 1-4 LJ12.
Tabscale = 2000 points/nm
Potential shift: LJ r^-12: 0.000 r^-6 0.000, Coulomb 0.000
Removing pbc first time
Center of mass motion removal mode is Linear
We have the following groups for center of mass motion removal:
  0:  rest
There are: 624 Atoms
Max number of connections per atom is 25
Total number of connections is 2000
Max number of graph edges per atom is 4
Total number of graph edges is 848
Initial temperature: 0 K

Started mdrun on node 0 Thu Dec 20 14:17:17 2012

           Step           Time         Lambda
              0        0.00000        0.00000


Grid: 4 x 4 x 4 cells
   Energies (kJ/mol)
           Bond        G96Bond          Angle       G96Angle    Proper Dih.
    6.00319e+00    2.30018e+02    8.32751e-01    6.28153e+00    8.00118e+00
  Improper Dih.          LJ-14     Coulomb-14        LJ (SR)        LJ (LR)
    2.03469e+00    6.50740e+00    1.00417e+02    0.00000e+00    0.00000e+00
   Coulomb (SR)   Coulomb (LR)      Potential    Kinetic En.   Total Energy
    0.00000e+00   -1.38168e+06   -1.38132e+06    0.00000e+00   -1.38132e+06
    Temperature Pressure (bar)
    0.00000e+00   -9.59030e+05

           Step           Time         Lambda
              2        0.00400        0.00000

Writing checkpoint, step 2 at Thu Dec 20 14:17:18 2012


   Energies (kJ/mol)
           Bond        G96Bond          Angle       G96Angle    Proper Dih.
    6.00319e+00    2.30018e+02    8.32751e-01    6.28153e+00    8.00118e+00
  Improper Dih.          LJ-14     Coulomb-14        LJ (SR)        LJ (LR)
    2.03469e+00    6.50740e+00    1.00417e+02    0.00000e+00    0.00000e+00
   Coulomb (SR)   Coulomb (LR)      Potential    Kinetic En.   Total Energy
    0.00000e+00   -1.38168e+06   -1.38132e+06    0.00000e+00   -1.38132e+06
    Temperature Pressure (bar)
    0.00000e+00   -9.59030e+05

	<======  ###############  ==>
	<====  A V E R A G E S  ====>
	<==  ###############  ======>

	Statistics over 3 steps using 2 frames

   Energies (kJ/mol)
           Bond        G96Bond          Angle       G96Angle    Proper Dih.
    6.00319e+00    2.30018e+02    8.32751e-01    6.28153e+00    8.00118e+00
  Improper Dih.          LJ-14     Coulomb-14        LJ (SR)        LJ (LR)
    2.03469e+00    6.50740e+00    1.00417e+02    0.00000e+00    0.00000e+00
   Coulomb (SR)   Coulomb (LR)      Potential    Kinetic En.   Total Energy
    0.00000e+00   -1.38168e+06   -1.38132e+06    0.00000e+00   -1.38132e+06
    Temperature Pressure (bar)
    0.00000e+00   -9.59030e+05

   Total Virial (kJ/mol)
    2.31344e+05   -6.94342e+02   -1.19821e+03
   -6.94342e+02    2.30176e+05    5.58844e+02
   -1.19821e+03    5.58844e+02    2.31530e+05

   Pressure (bar)
   -9.60388e+05    2.88246e+03    4.97421e+03
    2.88246e+03   -9.55539e+05   -2.31996e+03
    4.97421e+03   -2.31996e+03   -9.61163e+05

  Epot (kJ/mol)        Coul-SR          LJ-SR        Coul-LR          LJ-LR        Coul-14          LJ-14   
non-hydrogen-non-hydrogen    0.00000e+00    0.00000e+00    0.00000e+00    0.00000e+00   -2.93546e+02    6.50740e+00
non-hydrogen-hydrogen    0.00000e+00    0.00000e+00   -2.75965e+06    0.00000e+00    3.93963e+02    0.00000e+00
hydrogen-hydrogen    0.00000e+00    0.00000e+00    1.37798e+06    0.00000e+00    0.00000e+00    0.00000e+00


	M E G A - F L O P S   A C C O U N T I N G

 NB=Group-cutoff nonbonded kernels    NxN=N-by-N cluster Verlet kernels
 RF=Reaction-Field  VdW=Van der Waals  QSTab=quadratic-spline table
 W3=SPC/TIP3p  W4=TIP4p (single or pairs)
 V&F=Potential and force  V=Potential only  F=Force only

 Computing:                               M-Number         M-Flops  % Flops
-----------------------------------------------------------------------------
 NB Elec. [V&F]                           4.913104           4.913    20.9
 NB Elec. [F]                             2.366434           2.366    10.1
 1,4 nonbonded interactions               0.000120           0.011     0.0
 NS-Pairs                                 0.753831          15.830    67.5
 Reset In Box                             0.001872           0.006     0.0
 Shift-X                                  0.003744           0.022     0.1
 CG-CoM                                   0.001872           0.006     0.0
 Bonds                                    0.001272           0.075     0.3
 Angles                                   0.000732           0.123     0.5
 Propers                                  0.000024           0.005     0.0
 Impropers                                0.000024           0.005     0.0
 Virial                                   0.001338           0.024     0.1
 Stop-CM                                  0.001248           0.012     0.1
 Calc-Ekin                                0.002496           0.067     0.3
-----------------------------------------------------------------------------
 Total                                                      23.467   100.0
-----------------------------------------------------------------------------


     R E A L   C Y C L E   A N D   T I M E   A C C O U N T I N G

 Computing:         Nodes   Th.     Count  Wall t (s)     G-Cycles       %
-----------------------------------------------------------------------------
 Neighbor search        1    1          3       0.073        0.170    62.6
 Force                  1    1          3       0.027        0.062    22.6
 Write traj.            1    1          3       0.015        0.034    12.5
 Update                 1    1          3       0.000        0.000     0.2
 Rest                   1                       0.002        0.006     2.1
-----------------------------------------------------------------------------
 Total                  1                       0.117        0.272   100.0
-----------------------------------------------------------------------------

               Core t (s)   Wall t (s)        (%)
       Time:        0.110        0.117       94.0
                 (ns/day)    (hour/ns)
Performance:        4.429        5.419
Finished mdrun on node 0 Thu Dec 20 14:17:18 2012
