Log file opened on Thu May 23 13:02:36 2013
Host: ckutzne  pid: 26600  nodeid: 0  nnodes:  1
Gromacs version:    VERSION 4.6.2-dev-20130522-712ccd5
GIT SHA1 hash:      712ccd561dba07d6132e86b87488a46570d82d08
Branched from:      972ab1f9a0711af3bdc21b6126f45b85d2662014 (2 newer local commits)
Precision:          double
Memory model:       64 bit
MPI library:        none
OpenMP support:     disabled
GPU support:        disabled
invsqrt routine:    (1.0/sqrt(x))
CPU acceleration:   NONE
FFT library:        fftpack (built-in)
Large file support: enabled
RDTSCP usage:       enabled
Built on:           Wed May 22 17:16:08 CEST 2013
Built by:           ckutzne@ckutzne [CMAKE]
Build OS/arch:      Linux 3.4.33-2.24-desktop x86_64
Build CPU vendor:   GenuineIntel
Build CPU brand:    Intel(R) Xeon(R) CPU E5-1620 0 @ 3.60GHz
Build CPU family:   6   Model: 45   Stepping: 7
Build CPU features: aes apic avx clfsh cmov cx8 cx16 htt lahf_lm mmx msr nonstop_tsc pcid pclmuldq pdcm pdpe1gb popcnt pse rdtscp sse2 sse3 sse4.1 sse4.2 ssse3 tdt x2apic
C compiler:         /usr/bin/gcc-4.7 GNU gcc-4.7 (SUSE Linux) 4.7.1 20120723 [gcc-4_7-branch revision 189773]
C compiler flags:     -Wextra -Wno-missing-field-initializers -Wno-sign-compare -Wall -Wno-unused -Wunused-value -Wno-unknown-pragmas  -O0  -O0 -g


                         :-)  G  R  O  M  A  C  S  (-:

                   Groningen Machine for Chemical Simulation

                  :-)  VERSION 4.6.2-dev-20130522-712ccd5  (-:

        Contributions from Mark Abraham, Emile Apol, Rossen Apostolov, 
           Herman J.C. Berendsen, Aldert van Buuren, Pär Bjelkmar,  
     Rudi van Drunen, Anton Feenstra, Gerrit Groenhof, Christoph Junghans, 
        Peter Kasson, Carsten Kutzner, Per Larsson, Pieter Meulenhoff, 
           Teemu Murtola, Szilard Pall, Sander Pronk, Roland Schulz, 
                Michael Shirts, Alfons Sijbers, Peter Tieleman,

               Berk Hess, David van der Spoel, and Erik Lindahl.

       Copyright (c) 1991-2000, University of Groningen, The Netherlands.
         Copyright (c) 2001-2012,2013, The GROMACS development team at
        Uppsala University & The Royal Institute of Technology, Sweden.
            check out http://www.gromacs.org for more information.

         This program is free software; you can redistribute it and/or
       modify it under the terms of the GNU Lesser General Public License
        as published by the Free Software Foundation; either version 2.1
             of the License, or (at your option) any later version.

                      :-)  mdrun_d (double precision)  (-:


++++ PLEASE READ AND CITE THE FOLLOWING REFERENCE ++++
B. Hess and C. Kutzner and D. van der Spoel and E. Lindahl
GROMACS 4: Algorithms for highly efficient, load-balanced, and scalable
molecular simulation
J. Chem. Theory Comput. 4 (2008) pp. 435-447
-------- -------- --- Thank You --- -------- --------


++++ PLEASE READ AND CITE THE FOLLOWING REFERENCE ++++
D. van der Spoel, E. Lindahl, B. Hess, G. Groenhof, A. E. Mark and H. J. C.
Berendsen
GROMACS: Fast, Flexible and Free
J. Comp. Chem. 26 (2005) pp. 1701-1719
-------- -------- --- Thank You --- -------- --------


++++ PLEASE READ AND CITE THE FOLLOWING REFERENCE ++++
E. Lindahl and B. Hess and D. van der Spoel
GROMACS 3.0: A package for molecular simulation and trajectory analysis
J. Mol. Mod. 7 (2001) pp. 306-317
-------- -------- --- Thank You --- -------- --------


++++ PLEASE READ AND CITE THE FOLLOWING REFERENCE ++++
H. J. C. Berendsen, D. van der Spoel and R. van Drunen
GROMACS: A message-passing parallel molecular dynamics implementation
Comp. Phys. Comm. 91 (1995) pp. 43-56
-------- -------- --- Thank You --- -------- --------

Input Parameters:
   integrator           = md
   nsteps               = 25
   init-step            = 0
   cutoff-scheme        = Group
   ns_type              = Simple
   nstlist              = 5
   ndelta               = 2
   nstcomm              = 100
   comm-mode            = Linear
   nstlog               = 25
   nstxout              = 25
   nstvout              = 25
   nstfout              = 25
   nstcalcenergy        = 1
   nstenergy            = 1
   nstxtcout            = 100
   init-t               = 0.002
   delta-t              = 0.002
   xtcprec              = 1000
   fourierspacing       = 0.12
   nkx                  = 0
   nky                  = 0
   nkz                  = 0
   pme-order            = 4
   ewald-rtol           = 1e-05
   ewald-geometry       = 0
   epsilon-surface      = 0
   optimize-fft         = FALSE
   ePBC                 = xyz
   bPeriodicMols        = FALSE
   bContinuation        = FALSE
   bShakeSOR            = FALSE
   etc                  = No
   bPrintNHChains       = FALSE
   nsttcouple           = -1
   epc                  = No
   epctype              = Isotropic
   nstpcouple           = -1
   tau-p                = 1
   ref-p (3x3):
      ref-p[    0]={ 0.00000e+00,  0.00000e+00,  0.00000e+00}
      ref-p[    1]={ 0.00000e+00,  0.00000e+00,  0.00000e+00}
      ref-p[    2]={ 0.00000e+00,  0.00000e+00,  0.00000e+00}
   compress (3x3):
      compress[    0]={ 0.00000e+00,  0.00000e+00,  0.00000e+00}
      compress[    1]={ 0.00000e+00,  0.00000e+00,  0.00000e+00}
      compress[    2]={ 0.00000e+00,  0.00000e+00,  0.00000e+00}
   refcoord-scaling     = No
   posres-com (3):
      posres-com[0]= 0.00000e+00
      posres-com[1]= 0.00000e+00
      posres-com[2]= 0.00000e+00
   posres-comB (3):
      posres-comB[0]= 0.00000e+00
      posres-comB[1]= 0.00000e+00
      posres-comB[2]= 0.00000e+00
   verlet-buffer-drift  = 0.005
   rlist                = 0.4
   rlistlong            = 0.4
   nstcalclr            = 0
   rtpi                 = 0.05
   coulombtype          = Cut-off
   coulomb-modifier     = None
   rcoulomb-switch      = 0
   rcoulomb             = 0.4
   vdwtype              = Cut-off
   vdw-modifier         = None
   rvdw-switch          = 0
   rvdw                 = 0.4
   epsilon-r            = 1
   epsilon-rf           = 1
   tabext               = 1
   implicit-solvent     = No
   gb-algorithm         = Still
   gb-epsilon-solvent   = 80
   nstgbradii           = 1
   rgbradii             = 2
   gb-saltconc          = 0
   gb-obc-alpha         = 1
   gb-obc-beta          = 0.8
   gb-obc-gamma         = 4.85
   gb-dielectric-offset = 0.009
   sa-algorithm         = Ace-approximation
   sa-surface-tension   = 2.092
   DispCorr             = EnerPres
   bSimTemp             = FALSE
   free-energy          = no
   nwall                = 0
   wall-type            = 9-3
   wall-atomtype[0]     = -1
   wall-atomtype[1]     = -1
   wall-density[0]      = 0
   wall-density[1]      = 0
   wall-ewald-zfac      = 3
   pull                 = no
   rotation             = TRUE
   rot_nstrout          = 1
   rot_nstsout          = 1
   rot_ngrp             = 1
   rotation_group 0:
     type                 = iso
     massw                = TRUE
     atom (4):
        atom[0,...,3] = {0,...,3}
     x_ref (4x3):
        x_ref[    0]={ 1.00000e+00,  2.00000e+00,  3.00000e+00}
        x_ref[    1]={ 4.00000e+00,  5.50000e+00,  5.00000e+00}
        x_ref[    2]={ 4.50000e+00,  6.00000e+00,  2.50000e+00}
        x_ref[    3]={ 5.00000e+00,  4.50000e+00,  7.00000e+00}
     vec (3):
        vec[0]= 2.67261e-01
        vec[1]= 5.34522e-01
        vec[2]= 8.01784e-01
     pivot (3):
        pivot[0]= 4.00000e+00
        pivot[1]= 5.00000e+00
        pivot[2]= 4.00000e+00
     rate                 = 2500
     k                    = 1000
     slab_dist            = 1.5
     min_gaussian         = 1e-12
     epsilon              = 0.01
     fit_method           = rmsd
     potfitangle_nstep    = 21
     potfitangle_step     = 0.25
   disre                = No
   disre-weighting      = Conservative
   disre-mixed          = FALSE
   dr-fc                = 1000
   dr-tau               = 0
   nstdisreout          = 100
   orires-fc            = 0
   orires-tau           = 0
   nstorireout          = 100
   dihre-fc             = 0
   em-stepsize          = 0.01
   em-tol               = 100
   niter                = 20
   fc-stepsize          = 0
   nstcgsteep           = 1000
   nbfgscorr            = 10
   ConstAlg             = Lincs
   shake-tol            = 0.0001
   lincs-order          = 4
   lincs-warnangle      = 30
   lincs-iter           = 1
   bd-fric              = 0
   ld-seed              = 1993
   cos-accel            = 0
   deform (3x3):
      deform[    0]={ 0.00000e+00,  0.00000e+00,  0.00000e+00}
      deform[    1]={ 0.00000e+00,  0.00000e+00,  0.00000e+00}
      deform[    2]={ 0.00000e+00,  0.00000e+00,  0.00000e+00}
   adress               = FALSE
   userint1             = 0
   userint2             = 0
   userint3             = 0
   userint4             = 0
   userreal1            = 0
   userreal2            = 0
   userreal3            = 0
   userreal4            = 0
grpopts:
   nrdf:           9
   ref-t:           0
   tau-t:           0
anneal:          No
ann-npoints:           0
   acc:	           0           0           0
   nfreeze:           N           N           N
   energygrp-flags[  0]: 0
   efield-x:
      n = 0
   efield-xt:
      n = 0
   efield-y:
      n = 0
   efield-yt:
      n = 0
   efield-z:
      n = 0
   efield-zt:
      n = 0
   bQMMM                = FALSE
   QMconstraints        = 0
   QMMMscheme           = 0
   scalefactor          = 1
qm-opts:
   ngQM                 = 0

Detecting CPU-specific acceleration.
Present hardware specification:
Vendor: GenuineIntel
Brand:  Intel(R) Xeon(R) CPU E5-1620 0 @ 3.60GHz
Family:  6  Model: 45  Stepping:  7
Features: aes apic avx clfsh cmov cx8 cx16 htt lahf_lm mmx msr nonstop_tsc pcid pclmuldq pdcm pdpe1gb popcnt pse rdtscp sse2 sse3 sse4.1 sse4.2 ssse3 tdt x2apic
Acceleration most likely to fit this hardware: AVX_256
Acceleration selected at GROMACS compile time: None


Binary not matching hardware - you might be losing performance.
Acceleration most likely to fit this hardware: AVX_256
Acceleration selected at GROMACS compile time: None

Table routines are used for coulomb: FALSE
Table routines are used for vdw:     FALSE
Cut-off's:   NS: 0.4   Coulomb: 0.4   LJ: 0.4
Long Range LJ corr.: <C6> 1.7269e-04
System total charge: 0.000
Potential shift: LJ r^-12: 0.000 r^-6 0.000, Coulomb 0.000
Removing pbc first time

Can not set thread affinities on the current platform. On NUMA systems this
can cause performance degradation. If you think your platform should support
setting affinities, contact the GROMACS developers.

++++ PLEASE READ AND CITE THE FOLLOWING REFERENCE ++++
C. Kutzner and J. Czub and H. Grubmuller
Keep it Flexible: Driving Macromolecular Rotary Motions in Atomistic
Simulations with GROMACS
J. Chem. Theory Comput. 7 (2011) pp. 1381-1393
-------- -------- --- Thank You --- -------- --------

Enforced rotation: group 0 type 'iso'
Center of mass motion removal mode is Linear
We have the following groups for center of mass motion removal:
  0:  rest
There are: 4 Atoms
Max number of connections per atom is 0
Total number of connections is 0
Initial temperature: 0 K

Started mdrun on node 0 Thu May 23 13:02:36 2013

           Step           Time         Lambda
              0        0.00200        0.00000


   Energies (kJ/mol)
        LJ (SR)  Disper. corr.   Coulomb (SR)   COM Pull En.      Potential
    0.00000e+00   -1.76597e-04    0.00000e+00    1.56705e+03    1.56705e+03
    Kinetic En.   Total Energy    Temperature Pres. DC (bar) Pressure (bar)
    1.13967e+00    1.56819e+03    3.04600e+01   -1.14550e-05    2.46300e-02

           Step           Time         Lambda
             25        0.05200        0.00000

Writing checkpoint, step 25 at Thu May 23 13:02:36 2013


   Energies (kJ/mol)
        LJ (SR)  Disper. corr.   Coulomb (SR)   COM Pull En.      Potential
    0.00000e+00   -1.76597e-04    0.00000e+00    1.89002e+04    1.89002e+04
    Kinetic En.   Total Energy    Temperature Pres. DC (bar) Pressure (bar)
    6.59580e+03    2.54960e+04    1.76286e+05   -1.14550e-05    1.42612e+02

	<======  ###############  ==>
	<====  A V E R A G E S  ====>
	<==  ###############  ======>

	Statistics over 26 steps using 26 frames

   Energies (kJ/mol)
        LJ (SR)  Disper. corr.   Coulomb (SR)   COM Pull En.      Potential
    0.00000e+00   -1.76597e-04    0.00000e+00    9.21774e+03    9.21774e+03
    Kinetic En.   Total Energy    Temperature Pres. DC (bar) Pressure (bar)
    1.68362e+03    1.09014e+04    4.49983e+04   -1.14550e-05    3.64026e+01

   Total Virial (kJ/mol)
    1.76597e-04    0.00000e+00    0.00000e+00
    0.00000e+00    1.76597e-04    0.00000e+00
    0.00000e+00    0.00000e+00    1.76597e-04

   Pressure (bar)
    4.81055e+01    1.57559e+01   -2.13768e+01
    1.57559e+01    3.00360e+01   -1.96794e+01
   -2.13768e+01   -1.96794e+01    3.10665e+01


	M E G A - F L O P S   A C C O U N T I N G

 NB=Group-cutoff nonbonded kernels    NxN=N-by-N cluster Verlet kernels
 RF=Reaction-Field  VdW=Van der Waals  QSTab=quadratic-spline table
 W3=SPC/TIP3p  W4=TIP4p (single or pairs)
 V&F=Potential and force  V=Potential only  F=Force only

 Computing:                               M-Number         M-Flops  % Flops
-----------------------------------------------------------------------------
 NS-Pairs                                 0.000060           0.001     4.6
 Reset In Box                             0.000024           0.000     0.3
 CG-CoM                                   0.000024           0.000     0.3
 Virial                                   0.001274           0.023    83.9
 Stop-CM                                  0.000008           0.000     0.3
 Calc-Ekin                                0.000108           0.003    10.7
-----------------------------------------------------------------------------
 Total                                                       0.027   100.0
-----------------------------------------------------------------------------


     R E A L   C Y C L E   A N D   T I M E   A C C O U N T I N G

 Computing:         Nodes   Th.     Count  Wall t (s)     G-Cycles       %
-----------------------------------------------------------------------------
 Neighbor search        1    1          6       0.000        0.000     0.0
 Force                  1    1         26       0.000        0.000     0.0
 Write traj.            1    1          2       0.237        0.852    99.6
 Update                 1    1         26       0.000        0.000     0.0
 Enforced rotation      1    1         26       0.000        0.001     0.1
 Add rot. forces        1    1         26       0.000        0.000     0.0
 Rest                   1                       0.001        0.002     0.2
-----------------------------------------------------------------------------
 Total                  1                       0.238        0.856   100.0
-----------------------------------------------------------------------------

               Core t (s)   Wall t (s)        (%)
       Time:        0.010        0.238        4.2
                 (ns/day)    (hour/ns)
Performance:       18.912        1.269
Finished mdrun on node 0 Thu May 23 13:02:36 2013
